…
``` r
# Reshape long format to wide and creating a new variable called DeathRate for each provinces.
LStatusW<- LStatusL %>% pivot_wider(id_cols = Province, 
                        names_from = Status,
                        values_from = Cases) %>%
  mutate(DeathRate = (deaths / confirmed)*100)
```

Let’s take look at both long and wide format data.

``` r
LStatusL
```

    ## # A tibble: 99 × 3
    ## # Groups:   Province [33]
    ##    Province     Cases Status   
    ##    <chr>        <int> <chr>    
    ##  1 Xinjiang      1008 confirmed
    ##  2 Shandong      2749 confirmed
    ##  3 Shanxi         423 confirmed
    ##  4 Chongqing      726 confirmed
    ##  5 Hunan         1401 confirmed
    ##  6 Beijing       3674 confirmed
    ##  7 Tibet            1 confirmed
    ##  8 Guizhou        185 confirmed
    ##  9 Jiangxi       1386 confirmed
    ## 10 Heilongjiang  2987 confirmed
    ## # … with 89 more rows

``` r
LStatusW
```

    ## # A tibble: 33 × 5
    ## # Groups:   Province [33]
    ##    Province     confirmed deaths recovered DeathRate
    ##    <chr>            <int>  <int>     <int>     <dbl>
    ##  1 Xinjiang          1008      3         0    0.298 
    ##  2 Shandong          2749      7         0    0.255 
    ##  3 Shanxi             423      0         0    0     
    ##  4 Chongqing          726      6         0    0.826 
    ##  5 Hunan             1401      4         0    0.286 
    ##  6 Beijing           3674      9         0    0.245 
    ##  7 Tibet                1      0         0    0     
    ##  8 Guizhou            185      2         0    1.08  
    ##  9 Jiangxi           1386      1         0    0.0722
    ## 10 Heilongjiang      2987     13         0    0.435 
    ## # … with 23 more rows
…
